Size,Bandwidth (MB/s)
1,2.01
2,4.03
4,8.10
8,16.09
16,32.34
32,62.97
64,126.21
128,253.51
256,499.53
512,965.30
1024,1852.15
2048,3204.38
4096,4950.13
8192,6806.83
16384,8376.57
32768,8594.04
65536,9627.32
131072,10238.30
262144,10573.07
524288,10747.80
1048576,10837.80
2097152,10883.27
4194304,10906.15
1,1.99
2,3.96
4,8.01
8,16.18
16,31.90
32,63.81
64,127.63
128,251.06
256,494.54
512,946.20
1024,1815.48
2048,3197.86
4096,4939.72
8192,6796.08
16384,8368.62
32768,8549.04
65536,9577.22
131072,10225.87
262144,10565.99
524288,10743.45
1048576,10835.91
2097152,10882.26
4194304,10905.58
1,2.01
2,3.96
4,8.00
8,16.01
16,32.02
32,63.05
64,124.82
128,249.43
256,494.34
512,960.43
1024,1846.86
2048,3192.86
4096,4947.02
8192,6805.09
16384,8374.75
32768,8570.48
65536,9585.06
131072,10228.59
262144,10567.48
524288,10745.58
1048576,10836.71
2097152,10882.71
4194304,10905.88
1,1.99
2,3.99
4,7.73
8,15.85
16,31.60
32,63.42
64,127.11
128,244.83
256,488.19
512,967.54
1024,1823.50
2048,3203.43
4096,4894.78
8192,6792.62
16384,8361.40
32768,8584.91
65536,9617.96
131072,10233.55
262144,10572.43
524288,10747.93
1048576,10834.89
2097152,10883.19
4194304,10905.79
1,1.98
2,4.08
4,8.07
8,16.42
16,33.03
32,62.40
64,128.19
128,253.52
256,509.19
512,978.43
1024,1821.97
2048,3172.57
4096,4941.35
8192,6803.55
16384,8369.42
32768,8540.73
65536,9571.71
131072,10233.39
262144,10570.39
524288,10746.69
1048576,10837.02
2097152,10882.32
4194304,10905.55
