Size, Overall(us), Compute(us),Pure Comm.(us),Overlap(%)
1,52.95,29.79,23.15,0.00
2,49.44,28.30,22.02,4.02
4,47.88,26.97,20.96,0.26
8,47.75,26.89,20.91,0.23
16,50.50,26.78,20.81,0.00
32,55.82,30.76,23.95,0.00
64,56.60,31.03,24.18,0.00
128,56.29,30.80,23.99,0.00
256,56.76,31.23,24.34,0.00
512,51.82,30.03,23.34,6.64
1024,50.41,28.50,22.14,1.05
2048,51.72,29.25,22.73,1.17
4096,55.95,30.85,23.90,0.00
8192,74.90,41.80,32.43,0.00
16384,99.57,59.18,45.88,11.98
32768,234.73,129.04,101.68,0.00
65536,415.38,226.04,178.37,0.00
131072,808.01,420.84,332.64,0.00
262144,1702.03,808.59,639.47,0.00
524288,3525.94,1642.11,1298.71,0.00
1048576,7181.08,3512.19,2778.82,0.00
1,55.58,30.71,24.02,0.00
2,55.89,30.95,24.17,0.00
4,56.68,31.12,24.29,0.00
8,56.86,31.24,24.40,0.00
16,54.83,31.46,24.56,4.87
32,49.50,27.95,21.77,0.97
64,49.86,27.95,21.74,0.00
128,49.84,28.23,21.98,1.71
256,49.92,28.14,21.89,0.48
512,51.10,28.72,22.36,0.00
1024,60.47,33.35,26.04,0.00
2048,61.56,34.91,27.27,2.26
4096,55.66,31.84,24.68,3.46
8192,60.74,35.25,27.17,6.16
16384,92.28,56.58,43.85,18.59
32768,236.28,131.35,103.53,0.00
65536,419.47,226.23,178.54,0.00
131072,853.06,418.55,330.54,0.00
262144,1742.92,816.71,644.88,0.00
524288,3519.79,1652.15,1305.34,0.00
1048576,7119.58,3346.10,2643.74,0.00
1,47.90,26.98,21.00,0.37
2,48.02,27.17,21.13,1.28
4,47.91,26.97,20.97,0.15
8,47.92,27.00,21.00,0.37
16,48.12,26.97,20.97,0.00
32,48.34,27.32,21.26,1.12
64,48.61,27.48,21.37,1.11
128,48.28,27.18,21.15,0.25
256,48.32,27.21,21.17,0.25
512,49.01,27.63,21.49,0.53
1024,49.51,27.90,21.69,0.39
2048,50.71,28.61,22.26,0.76
4096,53.72,30.34,23.53,0.67
8192,59.21,34.73,26.76,8.51
16384,86.24,56.30,43.49,31.16
32768,226.30,124.26,97.83,0.00
65536,420.91,223.45,176.28,0.00
131072,853.88,414.52,327.36,0.00
262144,1716.13,801.17,632.96,0.00
524288,3529.02,1663.72,1314.42,0.00
1048576,7277.29,3529.63,2789.05,0.00
1,48.44,27.35,21.13,0.20
2,48.68,27.56,21.33,1.00
4,48.52,27.37,21.18,0.15
8,48.92,27.61,21.36,0.21
16,53.11,29.22,22.63,0.00
32,51.34,28.99,22.43,0.38
64,52.59,28.99,22.44,0.00
128,53.23,30.32,23.47,2.41
256,51.39,29.02,22.47,0.48
512,53.74,29.86,23.09,0.00
1024,54.69,30.28,23.40,0.00
2048,58.16,32.65,25.27,0.00
4096,60.75,35.67,27.56,8.98
8192,62.75,36.36,27.80,5.04
16384,90.27,57.59,44.17,26.03
32768,233.49,126.90,99.23,0.00
65536,427.12,227.01,177.89,0.00
131072,856.30,426.64,335.04,0.00
262144,1703.50,814.35,640.79,0.00
524288,3474.90,1654.41,1302.53,0.00
1048576,7130.34,3417.35,2691.75,0.00
1,46.84,26.32,20.54,0.08
2,46.93,26.36,20.57,0.01
4,46.89,26.33,20.55,0.00
8,46.93,26.41,20.62,0.46
16,46.83,26.31,20.53,0.02
32,47.00,26.39,20.60,0.00
64,47.11,26.42,20.61,0.00
128,47.17,26.50,20.68,0.05
256,47.47,26.55,20.73,0.00
512,47.92,26.98,21.05,0.52
1024,48.45,27.28,21.29,0.57
2048,49.50,27.88,21.75,0.63
4096,51.83,29.47,22.91,2.39
8192,57.65,33.97,26.27,9.84
16384,83.51,55.51,43.05,34.96
32768,220.71,119.97,94.58,0.00
65536,410.52,217.44,171.77,0.00
131072,829.96,407.49,322.27,0.00
262144,1641.08,775.73,613.37,0.00
524288,3449.00,1583.12,1251.97,0.00
1048576,7173.50,3429.89,2711.74,0.00
