Size, Avg Latency(us)
1,9.42
2,9.45
4,9.48
8,9.45
16,9.45
32,9.46
64,9.64
128,9.96
256,10.09
512,10.58
1024,11.27
2048,12.84
4096,15.92
8192,24.68
16384,44.77
32768,105.33
65536,207.63
131072,400.76
262144,819.96
524288,1544.15
1048576,3129.47
1,9.53
2,9.54
4,9.54
8,9.54
16,9.55
32,9.54
64,9.70
128,10.06
256,10.19
512,10.66
1024,11.28
2048,12.91
4096,15.97
8192,24.60
16384,44.59
32768,105.22
65536,205.89
131072,396.62
262144,780.07
524288,1541.68
1048576,3177.59
1,9.53
2,9.54
4,9.62
8,9.49
16,9.52
32,9.50
64,9.67
128,10.02
256,10.11
512,10.61
1024,11.27
2048,12.85
4096,15.95
8192,24.69
16384,44.75
32768,105.86
65536,205.60
131072,399.23
262144,784.37
524288,1522.53
1048576,3187.45
1,9.43
2,9.69
4,10.02
8,9.48
16,9.63
32,9.46
64,9.65
128,10.00
256,10.12
512,10.54
1024,11.26
2048,12.87
4096,15.99
8192,24.68
16384,44.68
32768,106.05
65536,207.95
131072,421.21
262144,788.75
524288,1545.54
1048576,3206.34
1,9.53
2,9.55
4,9.53
8,9.53
16,9.54
32,9.53
64,9.73
128,10.04
256,10.20
512,10.72
1024,11.31
2048,12.92
4096,16.02
8192,24.68
16384,44.81
32768,105.56
65536,205.93
131072,399.14
262144,769.68
524288,1544.84
1048576,3148.14
