Size, Avg Latency(us)
1,2.56
2,2.57
4,2.57
8,2.57
16,2.56
32,2.57
64,2.61
128,2.60
256,2.64
512,3.48
1024,3.74
2048,4.17
4096,5.52
8192,8.63
16384,15.35
32768,54.69
65536,79.87
131072,131.10
262144,235.86
524288,448.53
1048576,869.21
1,2.56
2,2.57
4,2.56
8,2.56
16,2.57
32,2.58
64,2.59
128,2.59
256,2.63
512,3.48
1024,3.74
2048,4.16
4096,5.46
8192,8.54
16384,15.23
32768,54.61
65536,80.17
131072,131.27
262144,236.29
524288,448.79
1048576,869.41
1,2.58
2,2.58
4,2.58
8,2.57
16,2.58
32,2.58
64,2.61
128,2.61
256,2.64
512,3.49
1024,3.75
2048,4.22
4096,5.54
8192,8.57
16384,15.30
32768,54.70
65536,80.26
131072,131.32
262144,235.74
524288,448.65
1048576,869.30
1,2.56
2,2.57
4,2.56
8,2.56
16,2.57
32,2.57
64,2.60
128,2.60
256,2.63
512,3.47
1024,3.75
2048,4.21
4096,5.53
8192,8.55
16384,15.26
32768,54.91
65536,80.01
131072,131.15
262144,235.81
524288,448.74
1048576,869.33
1,2.56
2,2.57
4,2.57
8,2.57
16,2.57
32,2.58
64,2.60
128,2.61
256,2.62
512,3.48
1024,3.74
2048,4.19
4096,5.48
8192,8.57
16384,15.25
32768,54.87
65536,80.02
131072,131.27
262144,235.90
524288,448.94
1048576,869.05
