Size, Overall(us), Compute(us),Pure Comm.(us),Overlap(%)
1,21.86,11.83,10.48,4.27
2,21.93,11.83,10.51,3.87
4,21.96,11.85,10.52,3.84
8,21.85,11.77,10.47,3.78
16,21.83,11.73,10.48,3.71
32,22.21,12.11,10.70,5.58
64,22.64,12.30,10.74,3.78
128,23.73,13.15,11.00,3.73
256,24.19,13.54,11.09,3.98
512,24.28,13.60,11.50,7.16
1024,24.85,13.62,12.11,7.26
2048,27.69,15.26,13.60,8.62
4096,32.07,17.75,16.36,12.43
8192,45.37,26.47,24.73,23.61
16384,74.60,46.56,44.35,36.79
32768,204.08,107.58,104.67,7.80
65536,378.93,204.74,200.38,13.07
131072,702.00,398.68,391.54,22.53
262144,1437.52,772.35,759.79,12.45
524288,2777.29,1533.10,1509.66,17.59
1048576,5445.13,3074.57,3028.97,21.74
1,21.88,11.85,10.48,4.22
2,21.94,11.85,10.52,4.09
4,21.91,11.85,10.47,3.91
8,22.05,11.85,10.47,2.51
16,21.94,11.85,10.50,3.86
32,21.95,11.85,10.51,3.91
64,22.44,12.18,10.70,4.14
128,23.71,13.09,10.92,2.75
256,24.20,13.52,11.12,4.01
512,24.26,13.59,11.51,7.26
1024,25.21,13.62,12.25,5.37
2048,27.49,15.05,13.58,8.38
4096,32.03,17.69,16.32,12.14
8192,45.56,26.66,24.81,23.82
16384,74.75,46.76,44.77,37.49
32768,202.62,107.18,104.10,8.33
65536,382.06,203.63,199.33,10.49
131072,728.98,401.14,393.98,16.79
262144,1409.26,781.72,769.11,18.41
524288,2765.85,1531.76,1508.42,18.19
1048576,5299.40,3111.78,3065.71,28.64
1,21.89,11.86,10.47,4.29
2,21.94,11.87,10.49,4.02
4,22.34,12.03,10.53,2.07
8,22.08,12.03,10.55,4.72
16,21.94,11.85,10.51,3.98
32,22.01,11.91,10.51,3.86
64,22.54,12.24,10.77,4.39
128,23.76,13.15,11.01,3.68
256,24.19,13.48,11.15,3.95
512,24.30,13.61,11.49,7.02
1024,24.89,13.63,12.15,7.26
2048,27.73,15.25,13.60,8.22
4096,32.22,17.75,16.42,11.87
8192,45.66,26.72,24.86,23.80
16384,74.76,46.60,44.76,37.06
32768,200.65,108.08,105.11,11.93
65536,380.85,205.09,200.81,12.47
131072,721.96,405.54,398.23,20.54
262144,1416.79,777.80,765.23,16.50
524288,2791.69,1529.08,1505.73,16.15
1048576,5427.25,3107.35,3061.33,24.22
1,21.84,11.84,10.49,4.63
2,21.82,11.76,10.49,4.00
4,21.80,11.73,10.48,3.90
8,21.80,11.74,10.47,3.92
16,21.78,11.69,10.51,3.98
32,22.03,11.91,10.52,3.83
64,22.48,12.18,10.68,3.64
128,23.85,13.31,10.98,3.94
256,24.00,13.40,11.06,4.11
512,24.26,13.59,11.47,6.91
1024,24.81,13.61,12.10,7.45
2048,27.72,15.29,13.55,8.29
4096,32.41,17.93,16.35,11.46
8192,45.80,26.90,24.85,23.98
16384,74.91,46.94,44.92,37.74
32768,201.84,107.33,104.55,9.59
65536,378.22,203.63,199.34,12.42
131072,730.99,395.53,388.47,13.65
262144,1410.33,774.19,761.68,16.48
524288,2726.76,1529.63,1506.34,20.53
1048576,5482.35,3066.38,3020.96,20.03
1,21.20,11.24,10.39,4.14
2,21.90,11.49,10.47,0.66
4,21.36,11.33,10.44,3.97
8,21.35,11.34,10.42,3.94
16,21.39,11.35,10.45,3.90
32,21.59,11.51,10.48,3.84
64,22.23,11.97,10.68,3.93
128,23.85,13.30,10.99,3.93
256,24.05,13.44,11.09,4.29
512,24.34,13.70,11.45,7.02
1024,24.93,13.73,12.04,6.98
2048,27.31,14.93,13.53,8.49
4096,32.02,17.70,16.34,12.33
8192,45.26,26.42,24.67,23.65
16384,74.53,46.56,44.68,37.39
32768,201.72,107.80,104.73,10.32
65536,374.91,203.92,199.58,14.32
131072,704.22,399.38,392.13,22.26
262144,1415.28,775.11,762.63,16.06
524288,2739.70,1533.09,1509.76,20.08
1048576,5408.61,3079.12,3033.74,23.21
