Size, Overall(us), Compute(us),Pure Comm.(us),Overlap(%)
4,28.58,15.76,14.06,8.87
8,28.20,14.93,13.61,2.53
16,28.58,15.57,13.89,6.39
32,28.47,15.55,13.93,7.26
64,29.02,16.28,14.38,11.37
128,29.33,16.29,14.41,9.48
256,29.70,16.32,15.02,10.96
512,38.10,20.29,18.60,4.26
1024,39.13,21.38,19.78,10.30
2048,42.92,22.78,20.80,3.15
4096,48.22,25.74,23.77,5.43
8192,57.97,31.12,28.85,6.95
16384,78.05,41.50,39.43,7.29
32768,134.27,68.15,65.81,0.00
65536,116.59,57.87,55.88,0.00
131072,175.54,88.29,85.61,0.00
262144,281.97,138.61,135.23,0.00
524288,512.04,243.76,238.94,0.00
1048576,808.16,402.71,395.57,0.00
4,28.58,15.46,13.94,5.92
8,28.27,14.95,13.64,2.34
16,28.60,15.80,14.07,8.99
32,28.54,15.61,13.97,7.50
64,29.04,16.23,14.41,11.11
128,29.08,16.25,14.44,11.14
256,29.49,16.30,14.86,11.27
512,38.19,20.20,18.66,3.54
1024,39.28,21.54,19.93,11.04
2048,43.28,22.91,20.81,2.15
4096,48.25,25.77,23.82,5.61
8192,58.13,31.17,29.02,7.09
16384,78.20,41.16,39.24,5.60
32768,133.98,67.78,65.51,0.00
65536,112.46,56.90,54.62,0.00
131072,171.99,86.15,83.53,0.00
262144,306.26,148.71,145.09,0.00
524288,539.24,259.95,254.83,0.00
1048576,816.68,404.93,397.68,0.00
4,28.54,15.38,13.97,5.75
8,28.22,14.93,13.60,2.29
16,28.62,15.93,14.08,9.95
32,28.73,15.57,14.00,5.98
64,28.99,16.27,14.39,11.60
128,28.97,16.27,14.37,11.65
256,29.48,16.62,15.06,14.62
512,38.16,20.33,18.63,4.32
1024,39.34,21.33,19.75,8.77
2048,42.88,22.91,20.73,3.65
4096,48.36,25.74,23.73,4.64
8192,58.16,31.14,29.08,7.10
16384,78.04,41.58,39.48,7.66
32768,134.22,68.20,66.01,0.00
65536,112.40,56.79,54.35,0.00
131072,173.55,86.68,84.01,0.00
262144,285.11,140.38,136.95,0.00
524288,507.42,240.25,235.47,0.00
1048576,809.75,404.62,397.41,0.00
4,28.63,15.60,14.03,7.08
8,28.26,14.94,13.67,2.57
16,28.65,15.73,13.98,7.64
32,28.53,15.59,13.96,7.36
64,29.03,16.28,14.40,11.47
128,28.99,16.29,14.45,12.09
256,29.47,16.29,14.82,11.05
512,38.11,20.34,18.69,4.89
1024,39.32,21.39,19.75,9.26
2048,43.05,23.01,20.79,3.61
4096,48.54,25.76,23.72,3.93
8192,58.23,31.16,29.06,6.83
16384,78.11,41.29,39.26,6.23
32768,134.15,68.03,65.78,0.00
65536,113.03,56.93,55.16,0.00
131072,175.38,88.52,86.09,0.00
262144,282.26,141.78,138.43,0.00
524288,492.23,242.36,237.53,0.00
1048576,814.24,406.27,399.08,0.00
4,28.57,15.85,14.05,9.51
8,28.23,14.95,13.59,2.29
16,28.92,15.67,14.00,5.44
32,28.48,15.60,13.94,7.64
64,29.04,16.28,14.45,11.71
128,28.99,16.29,14.43,11.91
256,29.43,16.29,14.85,11.49
512,38.08,20.33,18.63,4.75
1024,39.30,21.60,19.89,11.03
2048,42.84,23.03,20.91,5.26
4096,48.33,25.76,23.94,5.70
8192,58.24,31.14,28.96,6.45
16384,78.23,41.51,39.42,6.85
32768,134.20,68.21,65.92,0.00
65536,113.31,56.95,55.32,0.00
131072,174.95,87.33,84.67,0.00
262144,300.23,148.09,144.54,0.00
524288,530.44,257.52,252.38,0.00
1048576,814.25,405.17,398.03,0.00
