Size, Avg Latency(us)
4,3.65
8,3.64
16,3.68
32,3.68
64,3.75
128,3.81
256,3.85
512,4.92
1024,5.19
2048,5.49
4096,5.84
8192,6.97
16384,9.28
32768,17.75
65536,62.41
131072,143.83
262144,379.72
524288,880.69
1048576,1961.15
4,3.64
8,3.65
16,3.68
32,3.68
64,3.74
128,3.80
256,3.86
512,4.93
1024,5.20
2048,5.48
4096,5.77
8192,6.94
16384,9.25
32768,17.72
65536,60.92
131072,143.99
262144,379.57
524288,876.31
1048576,1957.98
4,3.65
8,3.64
16,3.68
32,3.68
64,3.75
128,3.81
256,3.86
512,4.93
1024,5.20
2048,5.53
4096,5.85
8192,6.97
16384,9.29
32768,17.73
65536,60.94
131072,144.14
262144,379.76
524288,882.10
1048576,1954.31
4,3.64
8,3.63
16,3.67
32,3.67
64,3.74
128,3.81
256,3.86
512,4.94
1024,5.18
2048,5.47
4096,5.79
8192,6.92
16384,9.22
32768,17.70
65536,60.95
131072,144.01
262144,379.15
524288,879.22
1048576,1952.75
4,3.65
8,3.63
16,3.68
32,3.67
64,3.74
128,3.80
256,3.85
512,4.93
1024,5.22
2048,5.53
4096,5.80
8192,6.96
16384,9.23
32768,17.90
65536,61.03
131072,143.98
262144,379.50
524288,879.58
1048576,1955.54
